#NOTES: 
#All Castle doors and gates are found in the castledoor.sql
#All thrones and signs are found in the staticobjects.csv
#To make a door unlockable through the unlock skill, add true to the end of the string
#Table Description:
#name;static_object_id;posx;posy;posz;pos_minx;pos_miny;pos_minz;pos_maxx;pos_maxy;pos_maxz;hp;physical_defence;magic_defence;unlockable

# Aden - Clan Halls
aden_clanhall_001;24180022;145358;25385;-2090;0;0;0;0;0;0;158250;644;518;False
aden_clanhall_002;24180023;145358;25304;-2090;0;0;0;0;0;0;158250;644;518;False
aden_clanhall_003;24180024;149438;23177;-2101;0;0;0;0;0;0;158250;644;518;False
aden_clanhall_004;24180025;149438;23095;-2101;0;0;0;0;0;0;158250;644;518;False
aden_clanhall_005;24180026;150299;23695;-2090;0;0;0;0;0;0;158250;644;518;False
aden_clanhall_006;24180027;150299;23614;-2090;0;0;0;0;0;0;158250;644;518;False
aden_clanhall_007;24180028;150444;26584;-2226;0;0;0;0;0;0;158250;644;518;False
aden_clanhall_008;24180029;150444;26502;-2226;0;0;0;0;0;0;158250;644;518;False
aden_clanhall_009;24180030;144359;28239;-2218;0;0;0;0;0;0;158250;644;518;False
aden_clanhall_010;24180031;144359;28158;-2218;0;0;0;0;0;0;158250;644;518;False
aden_clanhall_011;24180032;144294;27131;-2228;0;0;0;0;0;0;158250;644;518;False
aden_clanhall_012;24180033;144294;27049;-2228;0;0;0;0;0;0;158250;644;518;False

# Aden - Coliseum Gates
aden_colosseum_outer_001;24190001;147086;46721;-3434;0;0;0;0;0;0;687500;644;518;False
aden_colosseum_inner_001;24190002;148045;46721;-3435;0;0;0;0;0;0;687500;644;518;False
aden_colosseum_inner_002;24190003;150951;46721;-3435;0;0;0;0;0;0;687500;644;518;False
aden_colosseum_outer_002;24190004;151911;46721;-3435;0;0;0;0;0;0;687500;644;518;False

# Bandits Stronghold
bandit_outer_001;22170001;85621;-18127;-1670;0;0;0;0;0;0;158250;644;518;False
bandit_outer_002;22170002;85213;-18458;-1670;0;0;0;0;0;0;158250;644;518;False
bandit_inner_003;22170003;80818;-15357;-1762;0;0;0;0;0;0;158250;644;518;False
bandit_inner_004;22170004;80818;-15518;-1762;0;0;0;0;0;0;158250;644;518;False

# Cruma Tower - Core Room Doors
cruma_001;20210001;17624;112427;-6456;0;0;0;0;0;0;150000;476;383;True
cruma_002;20210002;17820;112427;-6456;0;0;0;0;0;0;150000;476;383;True
cruma_003;20210003;17721;112427;-6579;0;0;0;0;0;0;150000;476;383;True

# Dion - Clan Halls
H_Door_MV_01;20220011;18879;143353;-2998;0;0;0;0;0;0;158250;644;518;False
H_Door_MV_01;20220012;18872;143278;-2998;0;0;0;0;0;0;158250;644;518;False
H_Door_MV_01;20220013;17616;145184;-3025;0;0;0;0;0;0;158250;644;518;False
H_Door_MV_01;20220014;17678;145226;-3025;0;0;0;0;0;0;158250;644;518;False
H_Door_MV_01;20220015;20118;145994;-3099;0;0;0;0;0;0;158250;644;518;False
H_Door_MV_01;20220016;20193;145994;-3099;0;0;0;0;0;0;158250;644;518;False

# Devastated Castle
devastated_castle_outer_001;25170001;178212;-15038;-2135;0;0;0;0;0;0;158250;644;518;False
devastated_castle_outer_002;25170002;178468;-15038;-2135;0;0;0;0;0;0;158250;644;518;False
devastated_castle_inner_001;25170003;178121;-18226;-2286;0;0;0;0;0;0;79125;644;518;False
devastated_castle_inner_002;25170004;178245;-18226;-2286;0;0;0;0;0;0;79125;644;518;False
devastated_castle_inner_003;25170005;178302;-18573;-2287;0;0;0;0;0;0;79125;644;518;False
devastated_castle_inner_004;25170006;178302;-18648;-2287;0;0;0;0;0;0;79125;644;518;False

# Devils Isle
pirate_isle_001;21240001;42001;208378;-3666;0;0;0;0;0;0;187500;100000;10000;True
pirate_isle_002;21240002;43745;212594;-3623;0;0;0;0;0;0;187500;100000;10000;True
pirate_isle_003;21240003;42167;213285;-3643;0;0;0;0;0;0;187500;476;383;True
pirate_isle_004;21240004;51111;206106;-3912;0;0;0;0;0;0;187500;476;383;True
pirate_isle_005;21240005;52910;206720;-3692;0;0;0;0;0;0;187500;476;383;True
pirate_isle_006;21240006;52423;219103;-3209;0;0;0;0;0;0;187500;1000000;383;True

# Garden of Eva - Water Walls and Secret Walls
goe_001;22250001;86226;247063;-8584;0;0;0;0;0;0;187500;476;383;False
goe_002;22250002;88491;253871;-8584;0;0;0;0;0;0;187500;476;383;False
goe_003;22250003;76873;253954;-8584;0;0;0;0;0;0;187500;476;383;False
goe_004;22250004;79033;247128;-8584;0;0;0;0;0;0;187500;476;383;False
goe_005;22250005;82738;246603;-9093;0;0;0;0;0;0;187500;476;383;False
goe_006;22250006;87902;250378;-9093;0;0;0;0;0;0;187500;476;383;False
goe_007;22250007;85914;256377;-9093;0;0;0;0;0;0;187500;476;383;False
goe_008;22250008;79561;256348;-9093;0;0;0;0;0;0;187500;476;383;False
goe_009;22250009;77616;250361;-9093;0;0;0;0;0;0;187500;476;383;False
goe_010;22250010;80102;248387;-9611;0;0;0;0;0;0;187500;476;383;False
goe_011;22250011;85343;248344;-9611;0;0;0;0;0;0;187500;476;383;False
goe_012;22250012;87018;253389;-9611;0;0;0;0;0;0;187500;476;383;False
goe_013;22250013;82768;256485;-9611;0;0;0;0;0;0;187500;476;383;False
goe_014;22250014;78490;253391;-9611;0;0;0;0;0;0;187500;476;383;False
goe_015;22250015;79253;253097;-10118;0;0;0;0;0;0;187500;476;383;False
goe_016;22250016;79276;250856;-10118;0;0;0;0;0;0;187500;476;383;False
goe_017;22250017;80601;249046;-10118;0;0;0;0;0;0;187500;476;383;False
goe_018;22250018;82836;248341;-10118;0;0;0;0;0;0;187500;476;383;False
goe_019;22250019;84906;249034;-10116;0;0;0;0;0;0;187500;476;383;False
goe_020;22250020;86247;250888;-10118;0;0;0;0;0;0;187500;476;383;False
goe_021;22250021;86213;253197;-10118;0;0;0;0;0;0;187500;476;383;False
goe_022;22250022;84889;254973;-10118;0;0;0;0;0;0;187500;476;383;False
goe_023;22250023;82726;255659;-10118;0;0;0;0;0;0;187500;476;383;False
goe_024;22250024;80590;254950;-10118;0;0;0;0;0;0;187500;476;383;False
goe_025;22250025;81959;255493;-10734;0;0;0;0;0;0;187500;476;383;True
goe_026;22250026;83496;255494;-10734;0;0;0;0;0;0;187500;476;383;True
goe_027;22250027;83549;248505;-10734;0;0;0;0;0;0;187500;476;383;True
goe_028;22250028;82012;248506;-10734;0;0;0;0;0;0;187500;476;383;True
goe_029;22250029;82560;254715;-10880;0;0;0;0;0;0;187500;476;383;True

# Olympiad Arena
olympiadarena_Door_001;19170001;-21667;-21072;-3037;0;0;0;0;0;0;158250;644;518
olympiadarena_Door_001;19170002;-20027;-21072;-3037;0;0;0;0;0;0;158250;644;518
olympiadarena_Door_001;17100001;-88824;-252637;-3342;0;0;0;0;0;0;158250;644;518
olympiadarena_Door_001;17100002;-87184;-252637;-3342;0;0;0;0;0;0;158250;644;518
olympiadarena_Door_001;17100003;-84599;-252637;-3342;0;0;0;0;0;0;158250;644;518
olympiadarena_Door_001;17100004;-82959;-252637;-3342;0;0;0;0;0;0;158250;644;518
olympiadarena_Door_001;17100005;-80410;-252637;-3342;0;0;0;0;0;0;158250;644;518
olympiadarena_Door_001;17100006;-78749;-252637;-3342;0;0;0;0;0;0;158250;644;518
olympiadarena_Door_001;17100007;-76491;-252637;-3342;0;0;0;0;0;0;158250;644;518
olympiadarena_Door_001;17100008;-74851;-252637;-3342;0;0;0;0;0;0;158250;644;518
olympiadarena_Door_001;17100009;-88824;-249762;-3342;0;0;0;0;0;0;158250;644;518
olympiadarena_Door_001;17100010;-87184;-249762;-3342;0;0;0;0;0;0;158250;644;518
olympiadarena_Door_001;17100011;-84599;-249762;-3342;0;0;0;0;0;0;158250;644;518
olympiadarena_Door_001;17100012;-82959;-249762;-3342;0;0;0;0;0;0;158250;644;518
olympiadarena_Door_001;17100013;-80410;-249762;-3342;0;0;0;0;0;0;158250;644;518
olympiadarena_Door_001;17100014;-78770;-249762;-3342;0;0;0;0;0;0;158250;644;518
olympiadarena_Door_001;17100015;-76491;-249762;-3342;0;0;0;0;0;0;158250;644;518
olympiadarena_Door_001;17100016;-74851;-249762;-3342;0;0;0;0;0;0;158250;644;518
olympiadarena_Door_001;17100017;-88824;-246955;-3342;0;0;0;0;0;0;158250;644;518
olympiadarena_Door_001;17100018;-87184;-246955;-3342;0;0;0;0;0;0;158250;644;518
olympiadarena_Door_001;17100019;-84599;-246955;-3342;0;0;0;0;0;0;158250;644;518
olympiadarena_Door_001;17100020;-82959;-246955;-3342;0;0;0;0;0;0;158250;644;518
olympiadarena_Door_001;17100021;-80410;-246955;-3342;0;0;0;0;0;0;158250;644;518
olympiadarena_Door_001;17100022;-78770;-246955;-3342;0;0;0;0;0;0;158250;644;518
olympiadarena_Door_001;17100023;-76491;-246955;-3342;0;0;0;0;0;0;158250;644;518
olympiadarena_Door_001;17100024;-74851;-246955;-3342;0;0;0;0;0;0;158250;644;518
olympiadarena_Door_001;17100025;-88824;-244275;-3342;0;0;0;0;0;0;158250;644;518
olympiadarena_Door_001;17100026;-87184;-244275;-3342;0;0;0;0;0;0;158250;644;518
olympiadarena_Door_001;17100027;-84599;-244275;-3342;0;0;0;0;0;0;158250;644;518
olympiadarena_Door_001;17100028;-82959;-244275;-3342;0;0;0;0;0;0;158250;644;518
olympiadarena_Door_001;17100029;-80410;-244275;-3342;0;0;0;0;0;0;158250;644;518
olympiadarena_Door_001;17100030;-78770;-244275;-3342;0;0;0;0;0;0;158250;644;518
olympiadarena_Door_001;17100031;-76491;-244275;-3342;0;0;0;0;0;0;158250;644;518
olympiadarena_Door_001;17100032;-74851;-244275;-3342;0;0;0;0;0;0;158250;644;518
olympiadarena_Door_001;17100033;-88824;-241480;-3342;0;0;0;0;0;0;158250;644;518
olympiadarena_Door_001;17100034;-87184;-241480;-3342;0;0;0;0;0;0;158250;644;518
olympiadarena_Door_001;17100035;-84599;-241480;-3342;0;0;0;0;0;0;158250;644;518
olympiadarena_Door_001;17100036;-82959;-241480;-3342;0;0;0;0;0;0;158250;644;518
olympiadarena_Door_001;17100037;-80410;-241480;-3342;0;0;0;0;0;0;158250;644;518
olympiadarena_Door_001;17100038;-78770;-241480;-3342;0;0;0;0;0;0;158250;644;518
olympiadarena_Door_001;17100039;-76491;-241480;-3342;0;0;0;0;0;0;158250;644;518
olympiadarena_Door_001;17100040;-74851;-241480;-3342;0;0;0;0;0;0;158250;644;518
olympiadarena_Door_001;17100041;-88800;-238836;-3342;0;0;0;0;0;0;158250;644;518
olympiadarena_Door_001;17100042;-87160;-238836;-3342;0;0;0;0;0;0;158250;644;518
olympiadarena_Door_001;17100043;-84599;-238836;-3342;0;0;0;0;0;0;158250;644;518
olympiadarena_Door_001;17100044;-82959;-238836;-3342;0;0;0;0;0;0;158250;644;518

# Gludin - Clan Halls
gludin_clanhall_001;17220001;-84495;155209;-3150;0;0;0;0;0;0;158250;644;518;False
gludin_clanhall_002;17220002;-84495;155286;-3150;0;0;0;0;0;0;158250;644;518;False
gludin_clanhall_003;17220003;-83961;155258;-3150;0;0;0;0;0;0;158250;644;518;False
gludin_clanhall_004;17220004;-83961;155180;-3150;0;0;0;0;0;0;158250;644;518;False
gludin_clanhall_005;17220005;-83879;153064;-3149;0;0;0;0;0;0;158250;644;518;False
gludin_clanhall_006;17220006;-83956;153064;-3149;0;0;0;0;0;0;158250;644;518;False
gludin_clanhall_007;17220007;-83927;153598;-3149;0;0;0;0;0;0;158250;644;518;False
gludin_clanhall_008;17220008;-83850;153598;-3149;0;0;0;0;0;0;158250;644;518;False
gludin_clanhall_009;17220009;-83971;151880;-3112;0;0;0;0;0;0;158250;644;518;False
gludin_clanhall_010;17220010;-84047;151880;-3112;0;0;0;0;0;0;158250;644;518;False

# Gludin - Einhasad Temple
gludin_einhasad_001;17220011;-79737;150063;-3027;0;0;0;0;0;0;158250;644;518;False
gludin_einhasad_002;17220012;-79737;150138;-3027;0;0;0;0;0;0;158250;644;518;False
gludin_einhasad_003;17220013;-79740;151522;-3027;0;0;0;0;0;0;158250;644;518;False
gludin_einhasad_004;17220014;-79740;151598;-3027;0;0;0;0;0;0;158250;644;518;False

# Gludio - Clan Halls
gludio_clanhall_001;19210011;-14790;125633;-3123;0;0;0;0;0;0;158250;644;518;False
gludio_clanhall_002;19210012;-14790;125557;-3123;0;0;0;0;0;0;158250;644;518;False
gludio_clanhall_003;19210013;-14116;125602;-3122;0;0;0;0;0;0;158250;644;518;False
gludio_clanhall_004;19210014;-14116;125677;-3122;0;0;0;0;0;0;158250;644;518;False
gludio_clanhall_005;19210015;-12601;123885;-3096;0;0;0;0;0;0;158250;644;518;False
gludio_clanhall_006;19210016;-12676;123885;-3096;0;0;0;0;0;0;158250;644;518;False
gludio_clanhall_007;19210017;-15981;123747;-3096;0;0;0;0;0;0;158250;644;518;False
gludio_clanhall_008;19210018;-15909;123725;-3096;0;0;0;0;0;0;158250;644;518;False

# Partisans Hideaway - Clan Hall Doors
partisan001;21210001;43643;108908;-1970;0;0;0;0;0;0;158250;644;518;False
partisan002;21210002;43643;108783;-1970;0;0;0;0;0;0;158250;644;518;False

# Tower Of Insolence - Raid Boss Area Doors
aden_tower_of_hubris;23180003;113252;15914;4115;0;0;0;0;0;0;187500;476;383;False
aden_tower_of_hubris;23180002;113771;16849;-1979;0;0;0;0;0;0;187500;476;383;False
aden_tower_of_hubris;23180001;113876;16953;-1979;0;0;0;0;0;0;187500;476;383;False
aden_tower_of_hubris;23180006;113367;15868;7145;0;0;0;0;0;0;187500;476;383;False
aden_tower_of_hubris;23180005;113263;15764;7145;0;0;0;0;0;0;187500;476;383;False
aden_tower_of_hubris;23180004;113117;15970;4115;0;0;0;0;0;0;187500;476;383;False

#Imperial Tomb
#Conquerer
conq_mos;25150011;181195;-85594;-7069;0;0;0;0;0;0;158250;644;518;False
visc_hall_gate;25150012;182981;-85580;-7071;0;0;0;0;0;0;158250;644;518;False
count_hall_gate;25150013;184798;-85582;-7070;0;0;0;0;0;0;158250;644;518;False
marquis_hall_gate;25150014;186575;-85576;-7073;0;0;0;0;0;0;158250;644;518;False
duke_hall_gate;25150015;188363;-85576;-7067;0;0;0;0;0;0;158250;644;518;False
imp_grave_gate;25150016;190165;-85576;-7072;0;0;0;0;0;0;158250;644;518;False

#Ruler
ent_ruler;25150001;179512;-88979;-7067;0;0;0;0;0;0;158250;644;518;False
vs_hall_2;25150002;181248;-88979;-7066;0;0;0;0;0;0;158250;644;518;False
ct_ahll_2;25150003;183053;-88979;-7071;0;0;0;0;0;0;158250;644;518;False
mr_hall_2;25150004;184884;-88968;-7054;0;0;0;0;0;0;158250;644;518;False
dk_hall_2;25150005;186685;-88965;-7072;0;0;0;0;0;0;158250;644;518;False
em_grav_2;25150006;188472;-88968;-7070;0;0;0;0;0;0;158250;644;518;False

# Great Sage Mos
ent_grtsage;25150031;173218;-86614;-7073;0;0;0;0;0;0;158250;644;518;False
vs_hall_3;25150032;173218;-84780;-7069;0;0;0;0;0;0;158250;644;518;False
ct_ahll_3;25150033;173210;-82974;-7069;0;0;0;0;0;0;158250;644;518;False
mr_hall_3;25150034;173212;-81165;-7067;0;0;0;0;0;0;158250;644;518;False
dk_hall_3;25150035;173215;-79393;-7062;0;0;0;0;0;0;158250;644;518;False
em_grav_3;25150036;173196;-77563;-7065;0;0;0;0;0;0;158250;644;518;False

#Judge Mos
ent_judge;25150021;175610;-82701;-7061;0;0;0;0;0;0;158250;644;518;False
vs_hall_4;25150022;175610;-80956;-7070;0;0;0;0;0;0;158250;644;518;False
ct_ahll_4;25150023;175601;-79162;-7069;0;0;0;0;0;0;158250;644;518;False
mr_hall_4;25150024;175602;-77330;-7074;0;0;0;0;0;0;158250;644;518;False
dk_hall_4;25150025;175597;-75538;-7069;0;0;0;0;0;0;158250;644;518;False
em_grav_4;25150026;175588;-73721;-7067;0;0;0;0;0;0;158250;644;518;False

# Goddard - Clan Halls
goddard_clanhall_001;24160001;146438;-55458;-2792;0;0;0;0;0;0;158250;644;518;False
goddard_clanhall_002;24160002;146449;-55547;-2792;0;0;0;0;0;0;158250;644;518;False
goddard_clanhall_003;24160003;147071;-56472;-2792;0;0;0;0;0;0;158250;644;518;False
goddard_clanhall_004;24160004;147151;-56514;-2792;0;0;0;0;0;0;158250;644;518;False
goddard_clanhall_005;24160005;148262;-56520;-2792;0;0;0;0;0;0;158250;644;518;False
goddard_clanhall_006;24160006;148342;-56478;-2792;0;0;0;0;0;0;158250;644;518;False
goddard_clanhall_007;24160007;148971;-55557;-2792;0;0;0;0;0;0;158250;644;518;False
goddard_clanhall_008;24160008;148982;-55468;-2792;0;0;0;0;0;0;158250;644;518;False

# Forges of the God
godad_DCDoor_001;24210004;190917;-115528;-1519;0;0;0;0;0;0;158250;644;518;False
godad_DCDoor1F_002a;24210005;189479;-108511;-952;0;0;0;0;0;0;158250;644;518;False
godad_DCDoor2F_003a;24210006;191458;-108107;-955;0;0;0;0;0;0;158250;644;518;False

#Border Outpost
borderoutpost_Door_001a;23170001;114044;-17952;-1748;0;0;0;0;0;0;158250;644;518;False
borderoutpost_Door_002;24170001;157981;-25122;-1195;0;0;0;0;0;0;158250;644;518;False

# Giran - Clan Halls
giran_clanhall_001;22220012;83618;145281;-3360;0;0;0;0;0;0;158250;644;518;False
giran_clanhall_002;22220011;83618;145382;-3360;0;0;0;0;0;0;158250;644;518;False
giran_clanhall_003;22220009;81831;145368;-3489;0;0;0;0;0;0;158250;644;518;False
giran_clanhall_004;22220010;81831;145267;-3489;0;0;0;0;0;0;158250;644;518;False
giran_clanhall_005;22220008;78521;148327;-3553;0;0;0;0;0;0;158250;644;518;False
giran_clanhall_006;22220007;78622;148327;-3553;0;0;0;0;0;0;158250;644;518;False
giran_clanhall_007;22220005;81196;151657;-3490;0;0;0;0;0;0;158250;644;518;False
giran_clanhall_008;22220006;81196;151556;-3490;0;0;0;0;0;0;158250;644;518;False
giran_clanhall_009;22220003;81873;151943;-3488;0;0;0;0;0;0;126600;644;518;False
giran_clanhall_010;22220004;81873;151842;-3488;0;0;0;0;0;0;126600;644;518;False

#Godad Elmore
godad_ElmoreDoor_001;24140007;140702;-123836;-1931;0;0;0;0;0;0;158250;644;518;False
godad_ElmoreDoor_002;24140008;140721;-123934;-1931;0;0;0;0;0;0;158250;644;518;False
godad_ElmoreDoor_003;24140003;141148;-124309;-1894;0;0;0;0;0;0;158250;644;518;False
godad_ElmoreDoor_004;24140005;141280;-124737;-1894;0;0;0;0;0;0;158250;644;518;False
godad_ElmoreDoor_005;24140006;141230;-124812;-1894;0;0;0;0;0;0;158250;644;518;False
godad_ElmoreDoor_006;24140004;141223;-124359;-1894;0;0;0;0;0;0;158250;644;518;False
godad_ElmoreDoor_007;24140001;140727;-124476;-1894;0;0;0;0;0;0;158250;644;518;False
godad_ElmoreDoor_008;24140002;140777;-124401;-1894;0;0;0;0;0;0;158250;644;518;False

#Schuttgart clan hall doors
schuttgart_clan_hall_1;22130017;86119;-143216;-1325;0;0;0;0;0;0;158250;644;518;False
schuttgart_clan_hall_2;22130018;86124;-143169;-1325;0;0;0;0;0;0;158250;644;518;False
schuttgart_clan_hall_3;22130020;86755;-142227;-1325;0;0;0;0;0;0;158250;644;518;False
schuttgart_clan_hall_4;22130019;86797;-142207;-1325;0;0;0;0;0;0;158250;644;518;False
schuttgart_clan_hall_5;22130022;87970;-142235;-1325;0;0;0;0;0;0;158250;644;518;False
schuttgart_clan_hall_6;22130021;87934;-142214;-1325;0;0;0;0;0;0;158250;644;518;False
schuttgart_clan_hall_7;22130024;88611;-143182;-1325;0;0;0;0;0;0;158250;644;518;False
schuttgart_clan_hall_8;22130023;88618;-143224;-1325;0;0;0;0;0;0;158250;644;518;False

#Rune clan hall doors
rune_clan_hall_1;21160002;37701;-50416;899;0;0;0;0;0;0;158250;644;518;False
rune_clan_hall_2;21160001;37748;-50417;899;0;0;0;0;0;0;158250;644;518;False
rune_clan_hall_3;21160004;38538;-50126;898;0;0;0;0;0;0;158250;644;518;False
rune_clan_hall_4;21160003;38580;-50107;899;0;0;0;0;0;0;158250;644;518;False
rune_clan_hall_5;21160006;39116;-49513;899;0;0;0;0;0;0;158250;644;518;False
rune_clan_hall_6;21160005;39141;-49474;899;0;0;0;0;0;0;158250;644;518;False
rune_clan_hall_7;21160008;39326;-48267;895;0;0;0;0;0;0;158250;644;518;False
rune_clan_hall_8;21160007;39328;-48225;897;0;0;0;0;0;0;158250;644;518;False
rune_clan_hall_9;21160010;39148;-47009;899;0;0;0;0;0;0;158250;644;518;False
rune_clan_hall_10;21160009;39130;-46972;899;0;0;0;0;0;0;158250;644;518;False
rune_clan_hall_11;21160012;38600;-46378;899;0;0;0;0;0;0;158250;644;518;False
rune_clan_hall_12;21160011;38559;-46356;899;0;0;0;0;0;0;158250;644;518;False
rune_clan_hall_13;21160014;37766;-46060;899;0;0;0;0;0;0;158250;644;518;False
rune_clan_hall_14;21160013;37718;-46058;899;0;0;0;0;0;0;158250;644;518;False

#========================================
Chapel_Door001;19160010;-16148;-44158;-10725;0;0;0;0;0;0;158250;644;518;False
Chapel_Door002;19160011;-16582;-44156;-10725;0;0;0;0;0;0;158250;644;518;False
Temple_Gate;19160001;-16369;-36806;-10725;0;0;0;0;0;0;158250;644;518;False
Anteroom_Door001;19160006;-17855;-42547;-10725;0;0;0;0;0;0;158250;644;518;False
Anteroom_Door002;19160005;-14867;-42518;-10725;0;0;0;0;0;0;158250;644;518;False
Anteroom_Door003;19160002;-14868;-38977;-10725;0;0;0;0;0;0;158250;644;518;False
Anteroom_Door004;19160009;-17872;-38967;-10725;0;0;0;0;0;0;158250;644;518;False
Anteroom_Door005;19160008;-18140;-39825;-10725;0;0;0;0;0;0;158250;644;518;False
Anteroom_Door006;19160007;-18140;-41692;-10725;0;0;0;0;0;0;158250;644;518;False
Anteroom_Door007;19160003;-14595;-39831;-10725;0;0;0;0;0;0;158250;644;518;False
Anteroom_Door008;19160004;-14618;-41675;-10725;0;0;0;0;0;0;158250;644;518;False
Altar_Entrance001;19160014;-14829;-54967;-10603;0;0;0;0;0;0;158250;644;518;False
Altar_Entrance002;19160015;-17959;-54973;-10603;0;0;0;0;0;0;158250;644;518;False
Door_of_Darkness001;19160012;-14513;-52490;-11013;0;0;0;0;0;0;158250;644;518;False
Door_of_Darkness002;19160013;-18278;-52474;-11013;0;0;0;0;0;0;158250;644;518;False
Altar_Entrance001;19160017;-17420;-54835;-10449;0;0;0;0;0;0;158250;644;518;False
Altar_Entrance002;19160016;-15362;-54835;-10449;0;0;0;0;0;0;158250;644;518;False

#========================================
Wild_beast_reserve_Door001;21150002;59922;-94221;-1350;0;0;0;0;0;0;158250;644;518;False
Wild_beast_reserve_Door002;21150001;59974;-94123;-1350;0;0;0;0;0;0;158250;644;518;False
Wild_beast_reserve_Gate001;21150003;55320;-93265;-1360;0;0;0;0;0;0;158250;644;518;False
Wild_beast_reserve_Gate002;21150004;55260;-93052;-1360;0;0;0;0;0;0;158250;644;518;False
Wild_beast_reserve_Fence001;21150005;58474;-93976;-1360;0;0;0;0;0;0;158250;644;518;False
Wild_beast_reserve_Fence002;21150006;56858;-93648;-1364;0;0;0;0;0;0;158250;644;518;False
Wild_beast_reserve_Fence003;21150007;56634;-91988;-1360;0;0;0;0;0;0;158250;644;518;False
Wild_beast_reserve_Fence004;21150008;58167;-91263;-1360;0;0;0;0;0;0;158250;644;518;False
Wild_beast_reserve_Fence005;21150009;59303;-92530;-1360;0;0;0;0;0;0;158250;644;518;False

#===================================
Fortress_of_the_Dead_Outer_Gate001;21170002;58053;-29474;568;0;0;0;0;0;0;158250;644;518;False
Fortress_of_the_Dead_Outer_Gate002;21170001;57862;-19464;568;0;0;0;0;0;0;158250;644;518;False
Fortress_of_the_Dead_Door001;21170003;56991;-27197;578;0;0;0;0;0;0;158250;644;518;False
Fortress_of_the_Dead_Door002;21170004;56991;-27307;578;0;0;0;0;0;0;158250;644;518;False
Fortress_of_the_Dead_Door003;21170006;57910;-26384;592;0;0;0;0;0;0;158250;644;518;False
Fortress_of_the_Dead_Door004;21170005;58016;-26390;592;0;0;0;0;0;0;158250;644;518;False

#================================================
Ice_Wall001;23140001;115272;-125752;-3458;0;0;0;0;0;0;158250;644;518;False
Ice_Wall002;23140002;113934;-126025;-3457;0;0;0;0;0;0;158250;644;518;False
Secret_Door001;23150001;110714;-81562;-1589;0;0;0;0;0;0;158250;644;518;False
Secret_Door002;23150002;114877;-71466;-549;0;0;0;0;0;0;158250;644;518;False
Gate_of_Splendor001;23150003;112690;-78084;59;0;0;0;0;0;0;158250;644;518;False
Gate_of_Splendor002;23150004;112910;-78084;59;0;0;0;0;0;0;158250;644;518;False
Mausoleum_Gate001;25150045;174070;-83383;-5108;0;0;0;0;0;0;158250;644;518;False
Gate_of_Errors001;25150051;173065;-76042;-5108;0;0;0;0;0;0;158250;644;518;False

#Gate_of_Errors1;25150059
Mausoleum_Gate001;25150043;174064;-80218;-5108;0;0;0;0;0;0;158250;644;518;False
Mausoleum_Gate002;25150042;174072;-77640;-5108;0;0;0;0;0;0;158250;644;518;False
Gate_of_Errors002;25150052;173438;-76678;-5108;0;0;0;0;0;0;158250;644;518;False
Gate_of_Errors003;25150053;174085;-76961;-5108;0;0;0;0;0;0;158250;644;518;False
Gate_of_Errors004;25150054;174763;-76694;-5108;0;0;0;0;0;0;158250;644;518;False
Gate_of_Errors005;25150055;175030;-76039;-5108;0;0;0;0;0;0;158250;644;518;False
Gate_of_Errors006;25150056;174776;-75372;-5108;0;0;0;0;0;0;158250;644;518;False
Gate_of_Errors007;25150057;174111;-75101;-5108;0;0;0;0;0;0;158250;644;518;False
Gate_of_Errors008;25150058;173451;-75355;-5108;0;0;0;0;0;0;158250;644;518;False

#Gate_of_Errors0;25150060
Mausoleum_Gate003;25150046;174246;-86036;-5108;0;0;0;0;0;0;158250;644;518;False
Gate_of_Errors;25150066;173679;-80553;-5108;0;0;0;0;0;0;158250;644;518;False
Gate_of_Errors;25150067;173576;-81065;-5108;0;0;0;0;0;0;158250;644;518;False
Gate_of_Errors;25150068;173406;-81771;-5108;0;0;0;0;0;0;158250;644;518;False
Gate_of_Errors;25150069;173530;-82434;-5108;0;0;0;0;0;0;158250;644;518;False
Gate_of_Errors;25150070;173668;-83011;-5108;0;0;0;0;0;0;158250;644;518;False
Gate_of_Errors;25150061;174463;-83048;-5108;0;0;0;0;0;0;158250;644;518;False
Gate_of_Errors;25150062;174591;-82474;-5108;0;0;0;0;0;0;158250;644;518;False
Gate_of_Errors;25150063;174735;-81819;-5108;0;0;0;0;0;0;158250;644;518;False
Gate_of_Errors;25150064;174613;-81138;-5108;0;0;0;0;0;0;158250;644;518;False
Gate_of_Errors;25150065;174464;-80564;-5108;0;0;0;0;0;0;158250;644;518;False

#All Fort Post's Interlude!

#Gate_of_Fort_Out_post1
Gate_of_fort_001;23170001;112351;-16980;-997;0;0;0;0;0;0;158250;644;518;False
Gate_of_fort_002;23170002;109789;-15915;-968;0;0;0;0;0;0;158250;644;518;False
Gate_of_fort_003;23170003;109940;-15912;-968;0;0;0;0;0;0;158250;644;518;False
Gate_of_fort_004;23170004;111295;-15745;-995;0;0;0;0;0;0;158250;644;518;False
Gate_of_fort_005;23170005;111434;-15751;-995;0;0;0;0;0;0;158250;644;518;False
Gate_of_fort_006;23170006;109581;-14427;-997;0;0;0;0;0;0;158250;644;518;False
Gate_of_fort_007;23170007;109570;-14279;-997;0;0;0;0;0;0;158250;644;518;False
Gate_of_fort_008;23170008;111299;-14561;-995;0;0;0;0;0;0;158250;644;518;False
Gate_of_fort_009;23170009;111439;-14552;-995;0;0;0;0;0;0;158250;644;518;False
Gate_of_fort_010;23170010;113495;-14827;-960;0;0;0;0;0;0;158250;644;518;False
Gate_of_fort_011;23170011;113496;-14675;-960;0;0;0;0;0;0;158250;644;518;False
Gate_of_fort_012;23170012;110343;-13547;-997;0;0;0;0;0;0;158250;644;518;False

#Gate_of_Fort_dwarf
Gate_of_fort_013;23130001;107480;-140527;-2960;0;0;0;0;0;0;158250;644;518;False
Gate_of_fort_014;23130002;108904;-141115;-2957;0;0;0;0;0;0;158250;644;518;False
Gate_of_fort_015;23130003;108933;-140978;-2957;0;0;0;0;0;0;158250;644;518;False
Gate_of_fort_016;23130004;110035;-141466;-2957;0;0;0;0;0;0;158250;644;518;False
Gate_of_fort_017;23130005;110082;-141331;-2957;0;0;0;0;0;0;158250;644;518;False
Gate_of_fort_018;23130006;111436;-141717;-2961;0;0;0;0;0;0;158250;644;518;False
Gate_of_fort_019;23130007;110210;-139992;-2931;0;0;0;0;0;0;158250;644;518;False
Gate_of_fort_020;23130008;110245;-139863;-2931;0;0;0;0;0;0;158250;644;518;False

#Gate_of_Fort_Valley_of_Silence
Gate_of_fort_021;22150001;72495;-96497;-1431;0;0;0;0;0;0;158250;644;518;False
Gate_of_fort_022;22150002;71877;-95295;-1428;0;0;0;0;0;0;158250;644;518;False
Gate_of_fort_023;22150003;71991;-95347;-1428;0;0;0;0;0;0;158250;644;518;False
Gate_of_fort_024;22150004;70849;-94266;-1401;0;0;0;0;0;0;158250;644;518;False
Gate_of_fort_025;22150005;70906;-94139;-1401;0;0;0;0;0;0;158250;644;518;False
Gate_of_fort_026;22150006;72335;-94184;-1428;0;0;0;0;0;0;158250;644;518;False
Gate_of_fort_027;22150007;72457;-94244;-1428;0;0;0;0;0;0;158250;644;518;False
Gate_of_fort_028;22150008;71786;-92914;-1431;0;0;0;0;0;0;158250;644;518;False

#Gate_of_Fort_Swamp_of_Screams1
Gate_of_fort_029;22160001;68833;-63561;-2788;0;0;0;0;0;0;158250;644;518;False
Gate_of_fort_030;22160002;68648;-62604;-2786;0;0;0;0;0;0;158250;644;518;False
Gate_of_fort_031;22160003;68697;-62465;-2786;0;0;0;0;0;0;158250;644;518;False
Gate_of_fort_032;22160004;69539;-61954;-2788;0;0;0;0;0;0;158250;644;518;False
Gate_of_fort_033;22160005;69661;-62014;-2788;0;0;0;0;0;0;158250;644;518;False
Gate_of_fort_034;22160006;67852;-61152;-2751;0;0;0;0;0;0;158250;644;518;False
Gate_of_fort_035;22160007;67995;-61201;-2751;0;0;0;0;0;0;158250;644;518;False
Gate_of_fort_036;22160008;70007;-60848;-2786;0;0;0;0;0;0;158250;644;518;False
Gate_of_fort_037;22160009;70130;-60904;-2786;0;0;0;0;0;0;158250;644;518;False
Gate_of_fort_038;22160010;71445;-61691;-2759;0;0;0;0;0;0;158250;644;518;False
Gate_of_fort_039;22160011;71576;-61744;-2759;0;0;0;0;0;0;158250;644;518;False
Gate_of_fort_040;22160012;70691;-59115;-2788;0;0;0;0;0;0;158250;644;518;False

#Gate_of_Fort_Swamp_of_Screams2
Gate_of_fort_041;23160001;99138;-56376;-647;0;0;0;0;0;0;158250;644;518;False
Gate_of_fort_042;23160002;100617;-56738;-618;0;0;0;0;0;0;158250;644;518;False
Gate_of_fort_043;23160003;100763;-56734;-618;0;0;0;0;0;0;158250;644;518;False
Gate_of_fort_044;23160004;100129;-55395;-645;0;0;0;0;0;0;158250;644;518;False
Gate_of_fort_045;23160005;100112;-55259;-645;0;0;0;0;0;0;158250;644;518;False
Gate_of_fort_046;23160006;101307;-55393;-645;0;0;0;0;0;0;158250;644;518;False
Gate_of_fort_047;23160007;101324;-55268;-645;0;0;0;0;0;0;158250;644;518;False
Gate_of_fort_048;23160008;102179;-54353;-648;0;0;0;0;0;0;158250;644;518;False

#Gate_of_Fort_Gods_Falls
Gate_of_fort_049;22180001;74192;2796;-3047;0;0;0;0;0;0;158250;644;518;False
Gate_of_fort_050;22180002;73179;3767;-3045;0;0;0;0;0;0;158250;644;518;False
Gate_of_fort_051;22180003;73287;3866;-3045;0;0;0;0;0;0;158250;644;518;False
Gate_of_fort_052;22180004;72429;4689;-3045;0;0;0;0;0;0;158250;644;518;False
Gate_of_fort_053;22180005;72533;4783;-3045;0;0;0;0;0;0;158250;644;518;False
Gate_of_fort_054;22180006;74143;4897;-3018;0;0;0;0;0;0;158250;644;518;False
Gate_of_fort_055;22180007;74256;4991;-3018;0;0;0;0;0;0;158250;644;518;False
Gate_of_fort_056;22180008;71591;5954;-3047;0;0;0;0;0;0;158250;644;518;False

#Gate_of_Fort_Forsaken_Plains
Gate_of_fort_057;25190001;189916;37058;-3412;0;0;0;0;0;0;158250;644;518;False
Gate_of_fort_058;25190002;190651;38120;-3412;0;0;0;0;0;0;158250;644;518;False
Gate_of_fort_059;25190003;190628;38275;-3412;0;0;0;0;0;0;158250;644;518;False
Gate_of_fort_060;25190004;188078;39292;-3383;0;0;0;0;0;0;158250;644;518;False
Gate_of_fort_061;25190005;188229;39289;-3383;0;0;0;0;0;0;158250;644;518;False
Gate_of_fort_062;25190006;189856;39151;-3410;0;0;0;0;0;0;158250;644;518;False
Gate_of_fort_063;25190007;189996;39141;-3410;0;0;0;0;0;0;158250;644;518;False
Gate_of_fort_064;25190008;189865;40338;-3410;0;0;0;0;0;0;158250;644;518;False
Gate_of_fort_065;25190009;190006;40334;-3410;0;0;0;0;0;0;158250;644;518;False
Gate_of_fort_066;25190010;191424;39732;-3369;0;0;0;0;0;0;158250;644;518;False
Gate_of_fort_067;25190011;191425;39883;-3369;0;0;0;0;0;0;158250;644;518;False
Gate_of_fort_068;25190012;189907;41987;-3411;0;0;0;0;0;0;158250;644;518;False

#Gate_of_Fort_Narsell_Lake
Gate_of_fort_069;24190005;153305;56724;-3257;0;0;0;0;0;0;158250;644;518;False
Gate_of_fort_070;24190006;154393;55629;-3254;0;0;0;0;0;0;158250;644;518;False
Gate_of_fort_071;24190007;154484;55740;-3254;0;0;0;0;0;0;158250;644;518;False
Gate_of_fort_072;24190008;155311;54866;-3254;0;0;0;0;0;0;158250;644;518;False
Gate_of_fort_073;24190009;155405;54982;-3254;0;0;0;0;0;0;158250;644;518;False
Gate_of_fort_074;24190010;156502;54110;-3256;0;0;0;0;0;0;158250;644;518;False
Gate_of_fort_075;24190011;156032;56161;-3227;0;0;0;0;0;0;158250;644;518;False
Gate_of_fort_076;24190012;156127;56280;-3227;0;0;0;0;0;0;158250;644;518;False

#Gate_of_Fort_Devotion
Gate_of_fort_077;18200001;-54237;89572;-2824;0;0;0;0;0;0;158250;644;518;False
Gate_of_fort_078;18200002;-53305;90623;-2821;0;0;0;0;0;0;158250;644;518;False
Gate_of_fort_079;18200003;-53158;90623;-2821;0;0;0;0;0;0;158250;644;518;False
Gate_of_fort_080;18200004;-51507;90263;-2823;0;0;0;0;0;0;158250;644;518;False
Gate_of_fort_081;18200005;-51505;90413;-2823;0;0;0;0;0;0;158250;644;518;False
Gate_of_fort_082;18200006;-55129;91778;-2795;0;0;0;0;0;0;158250;644;518;False
Gate_of_fort_083;18200007;-55135;91927;-2795;0;0;0;0;0;0;158250;644;518;False
Gate_of_fort_084;18200008;-51148;91966;-2779;0;0;0;0;0;0;158250;644;518;False
Gate_of_fort_085;18200009;-51251;92074;-2779;0;0;0;0;0;0;158250;644;518;False
Gate_of_fort_086;18200010;-52265;92992;-2823;0;0;0;0;0;0;158250;644;518;False
Gate_of_fort_087;18200011;-53299;91817;-2821;0;0;0;0;0;0;158250;644;518;False
Gate_of_fort_088;18200012;-53157;91815;-2821;0;0;0;0;0;0;158250;644;518;False

#Gate_of_Fort_Lizardmen
Gate_of_fort_097;22200001;78083;89319;-2887;0;0;0;0;0;0;158250;644;518;False
Gate_of_fort_098;22200002;80525;89335;-2852;0;0;0;0;0;0;158250;644;518;False
Gate_of_fort_099;22200003;80659;89397;-2852;0;0;0;0;0;0;158250;644;518;False
Gate_of_fort_100;22200004;78681;90832;-2884;0;0;0;0;0;0;158250;644;518;False
Gate_of_fort_101;22200005;78749;90703;-2884;0;0;0;0;0;0;158250;644;518;False
Gate_of_fort_102;22200006;79730;91391;-2884;0;0;0;0;0;0;158250;644;518;False
Gate_of_fort_103;22200007;79800;91263;-2884;0;0;0;0;0;0;158250;644;518;False
Gate_of_fort_104;22200008;77811;92074;-2860;0;0;0;0;0;0;158250;644;518;False
Gate_of_fort_105;22200009;77885;91944;-2860;0;0;0;0;0;0;158250;644;518;False
Gate_of_fort_106;22200010;79044;92969;-2888;0;0;0;0;0;0;158250;644;518;False
Gate_of_fort_107;22200011;79149;93043;-2887;0;0;0;0;0;0;158250;644;518;False
Gate_of_fort_108;22200012;80174;92709;-2887;0;0;0;0;0;0;158250;644;518;False

#Gate_of_Fort_Hunters
Gate_of_fort_109;23200001;124219;93477;-2145;0;0;0;0;0;0;158250;644;518;False
Gate_of_fort_110;23200002;125173;94545;-2140;0;0;0;0;0;0;158250;644;518;False
Gate_of_fort_111;23200003;125308;94545;-2140;0;0;0;0;0;0;158250;644;518;False
Gate_of_fort_112;23200004;126977;94174;-2142;0;0;0;0;0;0;158250;644;518;False
Gate_of_fort_113;23200005;126970;94320;-2142;0;0;0;0;0;0;158250;644;518;False
Gate_of_fort_114;23200006;123350;95690;-2114;0;0;0;0;0;0;158250;644;518;False
Gate_of_fort_115;23200007;123350;95841;-2144;0;0;0;0;0;0;158250;644;518;False
Gate_of_fort_116;23200008;125170;95723;-2140;0;0;0;0;0;0;158250;644;518;False
Gate_of_fort_117;23200009;125315;95730;-2140;0;0;0;0;0;0;158250;644;518;False
Gate_of_fort_118;23200010;127226;95985;-2098;0;0;0;0;0;0;158250;644;518;False
Gate_of_fort_119;23200011;127333;95879;-2098;0;0;0;0;0;0;158250;644;518;False
Gate_of_fort_120;23200012;126188;96919;-2144;0;0;0;0;0;0;158250;644;518;False

#Gate_of_Fort_Dragon_Valley
Gate_of_fort_121;23210001;126057;120664;-2588;0;0;0;0;0;0;158250;644;518;False
Gate_of_fort_122;23210002;126765;121740;-2585;0;0;0;0;0;0;158250;644;518;False
Gate_of_fort_123;23210003;126771;121875;-2585;0;0;0;0;0;0;158250;644;518;False
Gate_of_fort_124;23210004;124227;122892;-2557;0;0;0;0;0;0;158250;644;518;False
Gate_of_fort_125;23210005;124378;122890;-2557;0;0;0;0;0;0;158250;644;518;False
Gate_of_fort_126;23210006;126011;122742;-2585;0;0;0;0;0;0;158250;644;518;False
Gate_of_fort_127;23210007;126150;122744;-2585;0;0;0;0;0;0;158250;644;518;False
Gate_of_fort_128;23210008;127572;123336;-2543;0;0;0;0;0;0;158250;644;518;False
Gate_of_fort_129;23210009;127571;123487;-2543;0;0;0;0;0;0;158250;644;518;False
Gate_of_fort_130;23210010;126003;123937;-2585;0;0;0;0;0;0;158250;644;518;False
Gate_of_fort_131;23210011;126152;123941;-2585;0;0;0;0;0;0;158250;644;518;False
Gate_of_fort_132;23210012;126060;125566;-2588;0;0;0;0;0;0;158250;644;518;False

#Gate_of_Fort_Giran
Gate_of_fort_133;21220001;58980;138079;-1757;0;0;0;0;0;0;158250;644;518;False
Gate_of_fort_134;21220002;60094;138860;-1754;0;0;0;0;0;0;158250;644;518;False
Gate_of_fort_135;21220003;60234;138840;-1754;0;0;0;0;0;0;158250;644;518;False
Gate_of_fort_136;21220004;61662;138591;-1728;0;0;0;0;0;0;158250;644;518;False
Gate_of_fort_137;21220005;61802;138567;-1728;0;0;0;0;0;0;158250;644;518;False
Gate_of_fort_138;21220006;60325;140035;-1754;0;0;0;0;0;0;158250;644;518;False
Gate_of_fort_139;21220007;60467;140006;-1754;0;0;0;0;0;0;158250;644;518;False
Gate_of_fort_140;21220008;61536;140742;-1757;0;0;0;0;0;0;158250;644;518;False

#Gate_of_Fort_Gludin
Gate_of_fort_141;18220001;-50785;155914;-2055;0;0;0;0;0;0;158250;644;518;False
Gate_of_fort_142;18220002;-52209;156253;-2053;0;0;0;0;0;0;158250;644;518;False
Gate_of_fort_143;18220003;-52167;156377;-2053;0;0;0;0;0;0;158250;644;518;False
Gate_of_fort_144;18220004;-53349;156597;-2053;0;0;0;0;0;0;158250;644;518;False
Gate_of_fort_145;18220005;-53315;156731;-2053;0;0;0;0;0;0;158250;644;518;False
Gate_of_fort_146;18220006;-52811;157875;-2026;0;0;0;0;0;0;158250;644;518;False
Gate_of_fort_147;18220007;-52769;158020;-2026;0;0;0;0;0;0;158250;644;518;False
Gate_of_fort_148;18220008;-54753;157114;-2055;0;0;0;0;0;0;158250;644;518;False

#Gate_of_Fort_Dion
Gate_of_fort_149;20220017;4748;147965;-2890;0;0;0;0;0;0;158250;644;518;False
Gate_of_fort_150;20220018;4883;147965;-2890;0;0;0;0;0;0;158250;644;518;False
Gate_of_fort_151;20220019;6387;148322;-2862;0;0;0;0;0;0;158250;644;518;False
Gate_of_fort_152;20220020;6387;148322;-2862;0;0;0;0;0;0;158250;644;518;False
Gate_of_fort_153;20220021;4007;148725;-2892;0;0;0;0;0;0;158250;644;518;False
Gate_of_fort_154;20220022;5012;149680;-2889;0;0;0;0;0;0;158250;644;518;False
Gate_of_fort_155;20220023;5012;149820;-2889;0;0;0;0;0;0;158250;644;518;False
Gate_of_fort_156;20220024;6216;149684;-2889;0;0;0;0;0;0;158250;644;518;False
Gate_of_fort_157;20220025;6206;149821;-2889;0;0;0;0;0;0;158250;644;518;False
Gate_of_fort_158;20220026;7434;150742;-2892;0;0;0;0;0;0;158250;644;518;False
Gate_of_fort_159;20220027;5137;151882;-2854;0;0;0;0;0;0;158250;644;518;False
Gate_of_fort_160;20220028;5290;151883;-2854;0;0;0;0;0;0;158250;644;518;False

#Gate_of_Fort_Field_of_Silence
Gate_of_fort_161;22230001;73067;184177;-2585;0;0;0;0;0;0;158250;644;518;False
Gate_of_fort_162;22230002;71908;185162;-2554;0;0;0;0;0;0;158250;644;518;False
Gate_of_fort_163;22230003;71991;185045;-2554;0;0;0;0;0;0;158250;644;518;False
Gate_of_fort_164;22230004;73389;185448;-2581;0;0;0;0;0;0;158250;644;518;False
Gate_of_fort_165;22230005;73505;185523;-2581;0;0;0;0;0;0;158250;644;518;False
Gate_of_fort_166;22230006;72728;186449;-2581;0;0;0;0;0;0;158250;644;518;False
Gate_of_fort_167;22230007;72844;186523;-2581;0;0;0;0;0;0;158250;644;518;False
Gate_of_fort_168;22230008;73028;187827;-2585;0;0;0;0;0;0;158250;644;518;False

#Gate_of_Fort_Sacrifice
Gate_of_fort_169;19240001;-22328;218068;-3210;0;0;0;0;0;0;158250;644;518;False
Gate_of_fort_170;19240002;-22329;218210;-3210;0;0;0;0;0;0;158250;644;518;False
Gate_of_fort_171;19240003;-23557;218786;-3235;0;0;0;0;0;0;158250;644;518;False
Gate_of_fort_172;19240004;-23550;218929;-3235;0;0;0;0;0;0;158250;644;518;False
Gate_of_fort_173;19240005;-25127;219880;-3242;0;0;0;0;0;0;158250;644;518;False
Gate_of_fort_174;19240006;-23300;219733;-3236;0;0;0;0;0;0;158250;644;518;False
Gate_of_fort_175;19240007;-23302;219876;-3236;0;0;0;0;0;0;158250;644;518;False
Gate_of_fort_176;19240008;-22107;219730;-3236;0;0;0;0;0;0;158250;644;518;False
Gate_of_fort_177;19240009;-22101;219867;-3236;0;0;0;0;0;0;158250;644;518;False
Gate_of_fort_178;19240010;-20254;219894;-3239;0;0;0;0;0;0;158250;644;518;False
Gate_of_fort_179;19240011;-23206;221584;-3202;0;0;0;0;0;0;158250;644;518;False
Gate_of_fort_180;19240012;-23207;221736;-3202;0;0;0;0;0;0;158250;644;518;False

#Gate_of_Fort_Beehive
Gate_of_fort_181;20230003;15540;186345;-2926;0;0;0;0;0;0;158250;644;518;False
Gate_of_fort_182;20230004;16190;187605;-2924;0;0;0;0;0;0;158250;644;518;False
Gate_of_fort_183;20230005;16306;187525;-2924;0;0;0;0;0;0;158250;644;518;False
Gate_of_fort_184;20230006;17546;187016;-2897;0;0;0;0;0;0;158250;644;518;False
Gate_of_fort_185;20230007;17680;186938;-2897;0;0;0;0;0;0;158250;644;518;False
Gate_of_fort_186;20230008;16857;188596;-2924;0;0;0;0;0;0;158250;644;518;False
Gate_of_fort_187;20230009;16969;188519;-2924;0;0;0;0;0;0;158250;644;518;False
#Gate_of_fort_188;20230010;17814;189754;-2926;0;0;0;0;0;0;158250;644;518;False

#Gate_of_Fort_Heine
Gate_of_fort_189;23240001;116607;203928;-3336;0;0;0;0;0;0;158250;644;518;False
Gate_of_fort_190;23240002;117848;204693;-3333;0;0;0;0;0;0;158250;644;518;False
Gate_of_fort_191;23240003;117917;204577;-3333;0;0;0;0;0;0;158250;644;518;False
Gate_of_fort_192;23240004;119428;203971;-3306;0;0;0;0;0;0;158250;644;518;False
Gate_of_fort_193;23240005;119494;203842;-3306;0;0;0;0;0;0;158250;644;518;False
Gate_of_fort_193;23240006;118905;205267;-3333;0;0;0;0;0;0;158250;644;518;False
Gate_of_fort_195;23240007;118971;205133;-3333;0;0;0;0;0;0;158250;644;518;False
Gate_of_fort_196;23240008;120241;205881;-3336;0;0;0;0;0;0;158250;644;518;False

#Gate_of_Fort_Ketra_Post
Gate_of_fort_197;24150001;158492;-72096;-2839;0;0;0;0;0;0;158250;644;518;False
Gate_of_fort_198;24150002;158577;-71971;-2839;0;0;0;0;0;0;158250;644;518;False
Gate_of_fort_199;24150003;157289;-69087;-2866;0;0;0;0;0;0;158250;644;518;False
Gate_of_fort_201;24150004;158612;-70032;-2864;0;0;0;0;0;0;158250;644;518;False
Gate_of_fort_202;24150005;158690;-69914;-2864;0;0;0;0;0;0;158250;644;518;False
Gate_of_fort_203;24150006;159606;-70703;-2864;0;0;0;0;0;0;158250;644;518;False
Gate_of_fort_204;24150007;159684;-70591;-2864;0;0;0;0;0;0;158250;644;518;False
Gate_of_fort_205;24150008;161367;-71807;-2866;0;0;0;0;0;0;158250;644;518;False
Gate_of_fort_206;24150009;160746;-70552;-2866;0;0;0;0;0;0;158250;644;518;False
Gate_of_fort_207;24150010;160881;-70617;-2866;0;0;0;0;0;0;158250;644;518;False
Gate_of_fort_208;24150011;159858;-68991;-2825;0;0;0;0;0;0;158250;644;518;False
Gate_of_fort_209;24150012;159984;-69070;-2825;0;0;0;0;0;0;158250;644;518;False

#Coral Garden Gate
Coral_garden_01;24220001;143674;142348;-11879;0;0;0;0;0;0;158250;644;518;False
Coral_garden_02;24220002;144468;142473;-11880;0;0;0;0;0;0;158250;644;518;False
Coral_garden_03;24220003;147292;143712;-12203;0;0;0;0;0;0;158250;644;518;False
Coral_garden_04;24220004;149588;143457;-12088;0;0;0;0;0;0;158250;644;518;False
Coral_garden_05;24220005;149711;147254;-12365;0;0;0;0;0;0;158250;644;518;False
Coral_garden_06;24220006;152762;146913;-12604;0;0;0;0;0;0;158250;644;518;False
Coral_garden_07;24220007;153710;145940;-12564;0;0;0;0;0;0;158250;644;518;False
Coral_garden_08;24220008;153573;143621;-12675;0;0;0;0;0;0;158250;644;518;False
Coral_garden_09;24220009;152822;143377;-12706;0;0;0;0;0;0;158250;644;518;False
Coral_garden_10;24220010;152270;142832;-12706;0;0;0;0;0;0;158250;644;518;False
Coral_garden_11;24220011;152071;142076;-12732;0;0;0;0;0;0;158250;644;518;False
Coral_garden_12;24220012;152269;141323;-12732;0;0;0;0;0;0;158250;644;518;False
Coral_garden_13;24220013;152819;140775;-12706;0;0;0;0;0;0;158250;644;518;False
Coral_garden_14;24220014;153574;140570;-12732;0;0;0;0;0;0;158250;644;518;False
Coral_garden_15;24220015;154325;140775;-12710;0;0;0;0;0;0;158250;644;518;False
Coral_garden_16;24220016;154873;141326;-12732;0;0;0;0;0;0;158250;644;518;False
Coral_garden_17;24220017;155075;142077;-12732;0;0;0;0;0;0;158250;644;518;False
Coral_garden_18;24220018;154876;142827;-12732;0;0;0;0;0;0;158250;644;518;False
Coral_garden_19;24220019;154324;143379;-12732;0;0;0;0;0;0;158250;644;518;False
Coral_garden_20;24220020;144287;148923;-12136;0;0;0;0;0;0;158250;644;518;False
Coral_garden_21;24220021;143874;150287;-12137;0;0;0;0;0;0;158250;644;518;False
Coral_garden_22;24220022;144290;151654;-12136;0;0;0;0;0;0;158250;644;518;False
Coral_garden_23;24220024;141825;148893;-11834;0;0;0;0;0;0;158250;644;518;False
Coral_garden_24;24220025;141254;149546;-11836;0;0;0;0;0;0;158250;644;518;False
Coral_garden_25;24220026;143111;154426;-11808;0;0;0;0;0;0;158250;644;518;False

#Normil's cave
Normils_cave_01;17190001;-85054;47901;-3863;0;0;0;0;0;0;158250;644;518;False

#Normil's Garden
Normils_garden_01;16200001;-109712;76464;-12628;0;0;0;0;0;0;158250;644;518;False
Normils_garden_02;16200002;-110854;77939;-12820;0;0;0;0;0;0;158250;644;518;False
Normils_garden_03;16200003;-111600;77952;-12820;0;0;0;0;0;0;158250;644;518;False
Normils_garden_04;16200004;-107611;80592;-12916;0;0;0;0;0;0;158250;644;518;False
Normils_garden_05;16200005;-109152;80640;-12910;0;0;0;0;0;0;158250;644;518;False
Normils_garden_06;16200006;-108704;82416;-12878;0;0;0;0;0;0;158250;644;518;False
Normils_garden_07;16200007;-110477;83144;-12870;0;0;0;0;0;0;158250;644;518;False
Normils_garden_08;16200008;-112208;82384;-12878;0;0;0;0;0;0;158250;644;518;False
Normils_garden_09;16200009;-111808;80640;-12910;0;0;0;0;0;0;158250;644;518;False
Normils_garden_10;16200010;-107590;83674;-12884;0;0;0;0;0;0;158250;644;518;False
Normils_garden_11;16200011;-110484;84485;-12980;0;0;0;0;0;0;158250;644;518;False
Normils_garden_12;16200012;-111456;87168;-12973;0;0;0;0;0;0;158250;644;518;False
Normils_garden_13;16200013;-110682;84049;-13007;0;0;0;0;0;0;158250;644;518;False
Normils_garden_14;16200014;-113168;87177;-12878;0;0;0;0;0;0;158250;644;518;False
Normils_garden_15;16200015;-115076;87178;-12780;0;0;0;0;0;0;158250;644;518;False
Normils_garden_16;16200016;-116973;87177;-12713;0;0;0;0;0;0;158250;644;518;False
Normils_garden_17;16200017;-108898;82223;-12878;0;0;0;0;0;0;158250;644;518;False
Normils_garden_18;16200018;-110476;82844;-12878;0;0;0;0;0;0;158250;644;518;False
Normils_garden_19;16200019;-112043;82231;-12878;0;0;0;0;0;0;158250;644;518;False
Normils_garden_20;16200022;-107475;83666;-12884;0;0;0;0;0;0;158250;644;518;False
Normils_garden_21;16200023;-109227;81895;-12877;0;0;0;0;0;0;158250;644;518;False
Normils_garden_22;16200024;-110465;82834;-12878;0;0;0;0;0;0;158250;644;518;False
Normils_garden_23;16200025;-111711;81892;-12877;0;0;0;0;0;0;158250;644;518;False
